C:\Users\Usuario\Documents\NetBeansProjects\tiendajuegosRest\src\main\java\root\services\JuegosREST.java
C:\Users\Usuario\Documents\NetBeansProjects\tiendajuegosRest\src\main\java\root\tiendajuegosRest\HelloController.java
C:\Users\Usuario\Documents\NetBeansProjects\tiendajuegosRest\src\main\java\root\services\AppConfig.java
C:\Users\Usuario\Documents\NetBeansProjects\tiendajuegosRest\src\main\java\root\persitence\entites\TieJuegos.java
C:\Users\Usuario\Documents\NetBeansProjects\tiendajuegosRest\src\main\java\root\tiendajuegosRest\TiendajuegosRestRestApplication.java
